{
    "photos":{
       "page":1,
       "pages":2808,
       "perpage":100,
       "total":"280716",
       "photo":[
          {
             "id":"31558279438",
             "owner":"143087409@N06",
             "secret":"a41b489d5e",
             "server":"1940",
             "farm":2,
             "title":"You Should Experience Best Sports",
             "ispublic":1,
             "isfriend":0,
             "isfamily":0
          },
          {
             "id":"44709042264",
             "owner":"8306704@N06",
             "secret":"cbd317dcf7",
             "server":"1933",
             "farm":2,
             "title":"20170621_2859.jpg",
             "ispublic":1,
             "isfriend":0,
             "isfamily":0
          },
          {
             "id":"30492934817",
             "owner":"8306704@N06",
             "secret":"82e41824a2",
             "server":"1961",
             "farm":2,
             "title":"20170621_2858.jpg",
             "ispublic":1,
             "isfriend":0,
             "isfamily":0
          }
       ]
    },
    "stat":"ok"
 }